…
## Author

Saiem Gilani

## Examples

``` r
# \donttest{
  try(espn_nba_pbp(game_id = 401071880))
#> ── ESPN NBA Play-by-Play Information from ESPN.com ────────────── hoopR 3.0.0 ──
#> ℹ Data updated: 2026-03-16 14:12:23 UTC
#> # A tibble: 475 × 54
#>    id       sequence_number text  away_score home_score scoring_play score_value
#>    <chr>    <chr>           <chr>      <int>      <int> <lgl>              <int>
#>  1 4010718… 4               Jahl…          0          0 FALSE                  0
#>  2 4010718… 7               Nema…          0          3 TRUE                   3
#>  3 4010718… 9               Elfr…          2          3 TRUE                   2
#>  4 4010718… 10              Ian …          2          3 FALSE                  0
#>  5 4010718… 12              Kenr…          2          3 FALSE                  0
#>  6 4010718… 13              Jahl…          4          3 TRUE                   2
#>  7 4010718… 15              Harr…          4          5 TRUE                   2
#>  8 4010718… 16              King…          4          5 FALSE                  0
#>  9 4010718… 17              Ian …          7          5 TRUE                   3
#> 10 4010718… 19              Chri…          7          5 FALSE                  0
#> # ℹ 465 more rows
#> # ℹ 47 more variables: wallclock <chr>, shooting_play <lgl>,
#> #   points_attempted <int>, short_description <chr>, type_id <int>,
#> #   type_text <chr>, period_number <int>, period_display_value <chr>,
#> #   clock_display_value <chr>, team_id <int>, coordinate_x_raw <dbl>,
#> #   coordinate_y_raw <dbl>, coordinate_x <dbl>, coordinate_y <dbl>,
#> #   play_id <chr>, athlete_id_1 <int>, athlete_id_2 <int>, …
…
