…
## Author

Saiem Gilani

## Examples

``` r
# \donttest{
try(espn_mbb_player_box(game_id = 401479672))
#> ── ESPN MBB Player Box Information from ESPN.com ──────────────── hoopR 3.0.0 ──
#> ℹ Data updated: 2026-03-24 04:17:43 UTC
#> # A tibble: 30 × 54
#>      game_id season season_type game_date  game_date_time      athlete_id
#>        <int>  <int>       <int> <date>     <dttm>                   <int>
#>  1 401479672   2023           2 2022-11-29 2022-11-29 19:30:00    4684627
#>  2 401479672   2023           2 2022-11-29 2022-11-29 19:30:00    4575472
#>  3 401479672   2023           2 2022-11-29 2022-11-29 19:30:00    4431816
#>  4 401479672   2023           2 2022-11-29 2022-11-29 19:30:00    4684729
#>  5 401479672   2023           2 2022-11-29 2022-11-29 19:30:00    4431746
#>  6 401479672   2023           2 2022-11-29 2022-11-29 19:30:00    4700878
#>  7 401479672   2023           2 2022-11-29 2022-11-29 19:30:00    5105337
#>  8 401479672   2023           2 2022-11-29 2022-11-29 19:30:00    4592369
#>  9 401479672   2023           2 2022-11-29 2022-11-29 19:30:00    4684746
#> 10 401479672   2023           2 2022-11-29 2022-11-29 19:30:00    4683860
#> # ℹ 20 more rows
#> # ℹ 48 more variables: athlete_display_name <chr>, team_id <int>,
#> #   team_name <chr>, team_location <chr>, team_short_display_name <chr>,
#> #   minutes <dbl>, field_goals_made <int>, field_goals_attempted <int>,
#> #   three_point_field_goals_made <int>,
#> #   three_point_field_goals_attempted <int>, free_throws_made <int>,
#> #   free_throws_attempted <int>, offensive_rebounds <int>, …
…
