Get ESPN men's college basketball standings — espn_mbb_standings • hoopR
…
    year
Either numeric or character (YYYY)

    Value

    A standings data frame

    Examples

# \donttest{
  try(espn_mbb_standings(2021))
#> ── ESPN MBB Standings Information from ESPN.com ───────────────── hoopR 1.7.0 ──
#> ℹ Data updated: 2022-05-18 05:36:31 UTC
#> # A tibble: 348 × 74
#>    team_id team        playoffseed wins  losses winpercent gamesbehind pointsfor
#>    <chr>   <chr>       <chr>       <chr> <chr>  <chr>      <chr>       <chr>    
#>  1 2250    Gonzaga Bu… 1           31    1      0.96875    0           2911     
#>  2 239     Baylor Bea… 1           28    2      0.9333333… 0           2487     
#>  3 2737    Winthrop E… 1           23    2      0.9200000… 0           1972     
#>  4 248     Houston Co… 2           28    4      0.875      0           2434     
#>  5 2142    Colgate Ra… 2           14    2      0.875      0           1363     
#>  6 2057    Belmont Br… 1           26    4      0.8666666… 0           2439     
#>  7 2181    Drake Bull… 2           26    5      0.8387096… 0           2354     
#>  8 2350    Loyola Chi… 1           26    5      0.8387096… 0           2202     
#>  9 253     Southern U… 1           20    4      0.8333333… 0           2021     
#> 10 2426    Navy Midsh… 1           15    3      0.8333333… 0           1287     
#> # … with 338 more rows, and 66 more variables: pointsagainst <chr>,
#> #   avgpointsfor <chr>, avgpointsagainst <chr>, streak <chr>,
#> #   leaguewinpercent <chr>, total <chr>, home_playoffseed <chr>,
#> #   home_wins <chr>, home_losses <chr>, home_winpercent <chr>,
#> #   home_gamesbehind <chr>, home_pointsfor <chr>, home_pointsagainst <chr>,
#> #   home_avgpointsfor <chr>, home_avgpointsagainst <chr>, home_streak <chr>,
#> #   home_leaguewinpercent <chr>, home <chr>, road_playoffseed <chr>, …
…
