…
## Examples

``` r
# \donttest{
  espn_nba_wp(game_id = 401283399)
#> ── ESPN NBA Win Probability Information from ESPN.com ─────────── hoopR 3.0.0 ──
#> ℹ Data updated: 2026-03-18 16:19:04 UTC
#> # A tibble: 472 × 24
#>      game_id play_id     home_win_percentage away_win_percentage tie_percentage
#>        <dbl> <chr>                     <dbl>               <dbl>          <dbl>
#>  1 401283399 4012833994                0.615               0.385              0
#>  2 401283399 4012833997                0.6                 0.4                0
#>  3 401283399 4012833998                0.595               0.405              0
#>  4 401283399 4012833999                0.594               0.406              0
#>  5 401283399 40128339911               0.61                0.39               0
#>  6 401283399 40128339912               0.615               0.385              0
#>  7 401283399 40128339913               0.599               0.401              0
#>  8 401283399 40128339914               0.593               0.407              0
#>  9 401283399 40128339915               0.54                0.46               0
#> 10 401283399 40128339916               0.577               0.423              0
#> # ℹ 462 more rows
#> # ℹ 19 more variables: sequence_number <chr>, text <chr>, away_score <int>,
#> #   home_score <int>, scoring_play <lgl>, score_value <int>,
#> #   participants <list>, wallclock <chr>, shooting_play <lgl>,
#> #   points_attempted <int>, short_description <chr>, type_id <chr>,
#> #   type_text <chr>, period_number <int>, period_display_value <chr>,
#> #   clock_display_value <chr>, team_id <chr>, coordinate_x <int>, …
…
