…
## Author

Saiem Gilani

## Examples

``` r
# \donttest{
try(espn_mbb_game_all(game_id = 401479672))
#> $Plays
#> ── ESPN MBB Play-by-Play Information from ESPN.com ────────────── hoopR 3.0.0 ──
#> ℹ Data updated: 2026-03-18 16:18:33 UTC
#> # A tibble: 360 × 53
#>    id       sequence_number text  away_score home_score scoring_play score_value
#>    <chr>    <chr>           <chr>      <int>      <int> <lgl>              <int>
#>  1 4014796… 101799901       Jump…          0          0 FALSE                  0
#>  2 4014796… 101805501       Jess…          0          0 FALSE                  2
#>  3 4014796… 101805502       RJ M…          0          0 FALSE                  0
#>  4 4014796… 101805503       Skyy…          0          0 FALSE                  0
#>  5 4014796… 101808101       Terr…          0          0 FALSE                  3
#>  6 4014796… 101808102       RJ M…          0          0 FALSE                  0
#>  7 4014796… 101809301       RJ M…          0          0 FALSE                  2
#>  8 4014796… 101809302       Benn…          0          0 FALSE                  0
#>  9 4014796… 101809501       Foul…          0          0 FALSE                  0
#> 10 4014796… 101814601       Juda…          0          0 FALSE                  2
#> # ℹ 350 more rows
#> # ℹ 46 more variables: wallclock <chr>, shooting_play <lgl>,
#> #   points_attempted <int>, short_description <chr>, type_id <int>,
#> #   type_text <chr>, period_number <int>, period_display_value <chr>,
#> #   clock_display_value <chr>, team_id <int>, coordinate_x_raw <dbl>,
#> #   coordinate_y_raw <dbl>, coordinate_x <dbl>, coordinate_y <dbl>,
#> #   play_id <chr>, athlete_id_1 <int>, athlete_id_2 <int>, …
…
#>       <int>  <int>       <int> <date>     <dttm>                <int> <chr>     
#> 1 401479672   2023           2 2022-11-29 2022-11-29 19:30:00     183 s:40~l:41…
#> 2 401479672   2023           2 2022-11-29 2022-11-29 19:30:00     356 s:40~l:41…
#> # ℹ 50 more variables: team_slug <chr>, team_location <chr>, team_name <chr>,
#> #   team_abbreviation <chr>, team_display_name <chr>,
#> #   team_short_display_name <chr>, team_color <chr>,
#> #   team_alternate_color <chr>, team_logo <chr>, team_home_away <chr>,
#> #   team_score <int>, team_winner <lgl>, assists <int>, blocks <int>,
#> #   defensive_rebounds <int>, fast_break_points <chr>, field_goal_pct <dbl>,
#> #   field_goals_made <int>, field_goals_attempted <int>, …
#> 
#> $Player
#> ── ESPN MBB Player Box Information from ESPN.com ──────────────── hoopR 3.0.0 ──
#> ℹ Data updated: 2026-03-18 16:18:34 UTC
#> # A tibble: 30 × 54
#>      game_id season season_type game_date  game_date_time      athlete_id
#>        <int>  <int>       <int> <date>     <dttm>                   <int>
#>  1 401479672   2023           2 2022-11-29 2022-11-29 19:30:00    4684627
#>  2 401479672   2023           2 2022-11-29 2022-11-29 19:30:00    4575472
#>  3 401479672   2023           2 2022-11-29 2022-11-29 19:30:00    4431816
#>  4 401479672   2023           2 2022-11-29 2022-11-29 19:30:00    4684729
#>  5 401479672   2023           2 2022-11-29 2022-11-29 19:30:00    4431746
#>  6 401479672   2023           2 2022-11-29 2022-11-29 19:30:00    4700878
#>  7 401479672   2023           2 2022-11-29 2022-11-29 19:30:00    5105337
#>  8 401479672   2023           2 2022-11-29 2022-11-29 19:30:00    4592369
#>  9 401479672   2023           2 2022-11-29 2022-11-29 19:30:00    4684746
#> 10 401479672   2023           2 2022-11-29 2022-11-29 19:30:00    4683860
#> # ℹ 20 more rows
#> # ℹ 48 more variables: athlete_display_name <chr>, team_id <int>,
#> #   team_name <chr>, team_location <chr>, team_short_display_name <chr>,
#> #   minutes <dbl>, field_goals_made <int>, field_goals_attempted <int>,
#> #   three_point_field_goals_made <int>,
#> #   three_point_field_goals_attempted <int>, free_throws_made <int>,
#> #   free_throws_attempted <int>, offensive_rebounds <int>, …
…
