Get ESPN men's college basketball game rosters — espn_mbb_game_rosters • hoopR
…
    Author

    Saiem Gilani

    Examples

# \donttest{
  try(espn_mbb_game_rosters(game_id = 401256760))
#> ── ESPN MBB Game Roster Information from ESPN.com ─────────────── hoopR 2.0.0 ──
#> ℹ Data updated: 2023-04-01 21:31:58 UTC
#> # A tibble: 34 × 71
#>    athlete_id athlete_uid   athlete_guid athlete_type sdr   first_name last_name
#>         <int> <chr>         <chr>        <chr>        <chr> <chr>      <chr>    
#>  1    4277850 s:40~l:41~a:… 7b156c52fa1… basketball   4277… RaiQuan    Gray     
#>  2    4432829 s:40~l:41~a:… 2734604d097… basketball   4432… Balsa      Koprivica
#>  3    4433134 s:40~l:41~a:… dd0bb1da-07… basketball   4433… Scottie    Barnes   
#>  4    4277854 s:40~l:41~a:… f44291c90d0… basketball   4277… MJ         Walker   
#>  5    4277852 s:40~l:41~a:… f376da3f468… basketball   4277… Anthony    Polite   
#>  6    4279098 s:40~l:41~a:… 89f097edf5d… basketball   4279… Malik      Osborne  
#>  7    4701240 s:40~l:41~a:… f35c5378-4b… basketball   4701… Tanor      Ngom     
#>  8    4683134 s:40~l:41~a:… f878c598-70… basketball   4683… Quincy     Ballard  
#>  9    4701239 s:40~l:41~a:… 88820814-39… basketball   4701… Sardaar    Calhoun  
#> 10    4592191 s:40~l:41~a:… 066a390d78f… basketball   4592… Nathanael  Jack     
#> # ℹ 24 more rows
#> # ℹ 64 more variables: full_name <chr>, athlete_display_name <chr>,
#> #   short_name <chr>, weight <int>, display_weight <chr>, height <int>,
#> #   display_height <chr>, age <int>, date_of_birth <chr>,
#> #   birth_place_city <chr>, birth_place_state <chr>, birth_place_country <chr>,
#> #   slug <chr>, headshot_href <chr>, headshot_alt <chr>, jersey <chr>,
#> #   hand_type <chr>, hand_abbreviation <chr>, hand_display_value <chr>, …
…
