…
## Author

Saiem Gilani

## Examples

``` r
# \donttest{
try(espn_nba_player_box(game_id = 401071880))
#> ── ESPN NBA Player Box Information from ESPN.com ──────────────── hoopR 3.0.0 ──
#> ℹ Data updated: 2026-03-18 18:14:45 UTC
#> # A tibble: 26 × 57
#>      game_id season season_type game_date  game_date_time      athlete_id
#>        <int>  <int>       <int> <date>     <dttm>                   <int>
#>  1 401071880   2019           2 2019-04-07 2019-04-07 21:00:00    3058254
#>  2 401071880   2019           2 2019-04-07 2019-04-07 21:00:00    3135048
#>  3 401071880   2019           2 2019-04-07 2019-04-07 21:00:00    2489785
#>  4 401071880   2019           2 2019-04-07 2019-04-07 21:00:00    2583639
#>  5 401071880   2019           2 2019-04-07 2019-04-07 21:00:00    3133626
#>  6 401071880   2019           2 2019-04-07 2019-04-07 21:00:00    3919335
#>  7 401071880   2019           2 2019-04-07 2019-04-07 21:00:00    2488958
#>  8 401071880   2019           2 2019-04-07 2019-04-07 21:00:00    2585637
#>  9 401071880   2019           2 2019-04-07 2019-04-07 21:00:00       6583
#> 10 401071880   2019           2 2019-04-07 2019-04-07 21:00:00    3064514
#> # ℹ 16 more rows
#> # ℹ 51 more variables: athlete_display_name <chr>, team_id <int>,
#> #   team_name <chr>, team_location <chr>, team_short_display_name <chr>,
#> #   minutes <dbl>, field_goals_made <int>, field_goals_attempted <int>,
#> #   three_point_field_goals_made <int>,
#> #   three_point_field_goals_attempted <int>, free_throws_made <int>,
#> #   free_throws_attempted <int>, offensive_rebounds <int>, …
…
