Get ESPN NBA game data (Pbp, Team and Player Box) — espn_nba_game_all • hoopR
…
    A named list of data frames: Plays, Team, Player

    Author

    Saiem Gilani

    Examples

# \donttest{
  try(espn_nba_game_all(game_id = 401283399))
#> $Plays
#> ── ESPN NBA Play-by-Play Information from ESPN.com ────────────── hoopR 1.7.0 ──
#> ℹ Data updated: 2022-05-16 21:50:58 UTC
#> # A tibble: 472 × 20
#>    shooting_play sequence_number home_score scoring_play away_score id     text 
#>    <lgl>         <chr>                <int> <lgl>             <int> <chr>  <chr>
#>  1 FALSE         4                        0 FALSE                 0 40128… Isai…
#>  2 TRUE          7                        0 FALSE                 0 40128… Jona…
#>  3 FALSE         8                        0 FALSE                 0 40128… Dari…
#>  4 FALSE         9                        0 FALSE                 0 40128… Dill…
#>  5 TRUE          11                       0 FALSE                 0 40128… Dari…
#>  6 FALSE         12                       0 FALSE                 0 40128… Ja M…
#>  7 TRUE          13                       0 FALSE                 0 40128… Gray…
#>  8 FALSE         14                       0 FALSE                 0 40128… Isai…
#>  9 TRUE          15                       0 TRUE                  3 40128… Shai…
#> 10 FALSE         16                       0 FALSE                 3 40128… Theo…
#> # … with 462 more rows, and 13 more variables: score_value <int>,
#> #   period_display_value <chr>, period_number <int>, coordinate_x <int>,
#> #   coordinate_y <int>, clock_display_value <chr>, team_id <chr>,
#> #   type_id <chr>, type_text <chr>, play_id <chr>, athlete_id_1 <chr>,
#> #   athlete_id_2 <chr>, athlete_id_3 <chr>
…
