…
## Author

Saiem Gilani

## Examples

``` r
# \donttest{
try(espn_nba_game_all(game_id = 401283399))
#> $Plays
#> ── ESPN NBA Play-by-Play Information from ESPN.com ────────────── hoopR 3.0.0 ──
#> ℹ Data updated: 2026-03-26 14:51:03 UTC
#> # A tibble: 472 × 54
#>    id       sequence_number text  away_score home_score scoring_play score_value
#>    <chr>    <chr>           <chr>      <int>      <int> <lgl>              <int>
#>  1 4012833… 4               Isai…          0          0 FALSE                  0
#>  2 4012833… 7               Jona…          0          0 FALSE                  0
#>  3 4012833… 8               Dari…          0          0 FALSE                  0
#>  4 4012833… 9               Dill…          0          0 FALSE                  0
#>  5 4012833… 11              Dari…          0          0 FALSE                  0
#>  6 4012833… 12              Ja M…          0          0 FALSE                  0
#>  7 4012833… 13              Gray…          0          0 FALSE                  0
#>  8 4012833… 14              Isai…          0          0 FALSE                  0
#>  9 4012833… 15              Shai…          3          0 TRUE                   3
#> 10 4012833… 16              Theo…          3          0 FALSE                  0
#> # ℹ 462 more rows
#> # ℹ 47 more variables: wallclock <chr>, shooting_play <lgl>,
#> #   points_attempted <int>, short_description <chr>, type_id <int>,
#> #   type_text <chr>, period_number <int>, period_display_value <chr>,
#> #   clock_display_value <chr>, team_id <int>, coordinate_x_raw <dbl>,
#> #   coordinate_y_raw <dbl>, coordinate_x <dbl>, coordinate_y <dbl>,
#> #   play_id <chr>, athlete_id_1 <int>, athlete_id_2 <int>, …
…
#>       <int>  <int>       <int> <date>     <dttm>                <int> <chr>     
#> 1 401283399   2021           2 2021-02-17 2021-02-17 21:00:00      25 s:40~l:46…
#> 2 401283399   2021           2 2021-02-17 2021-02-17 21:00:00      29 s:40~l:46…
#> # ℹ 50 more variables: team_slug <chr>, team_location <chr>, team_name <chr>,
#> #   team_abbreviation <chr>, team_display_name <chr>,
#> #   team_short_display_name <chr>, team_color <chr>,
#> #   team_alternate_color <chr>, team_logo <chr>, team_home_away <chr>,
#> #   team_score <int>, team_winner <lgl>, assists <int>, blocks <int>,
#> #   defensive_rebounds <int>, fast_break_points <chr>, field_goal_pct <dbl>,
#> #   field_goals_made <int>, field_goals_attempted <int>, …
#> 
#> $Player
#> ── ESPN NBA Player Box Information from ESPN.com ──────────────── hoopR 3.0.0 ──
#> ℹ Data updated: 2026-03-26 14:51:03 UTC
#> # A tibble: 24 × 57
#>      game_id season season_type game_date  game_date_time      athlete_id
#>        <int>  <int>       <int> <date>     <dttm>                   <int>
#>  1 401283399   2021           2 2021-02-17 2021-02-17 21:00:00    4066392
#>  2 401283399   2021           2 2021-02-17 2021-02-17 21:00:00    4423545
#>  3 401283399   2021           2 2021-02-17 2021-02-17 21:00:00    4683027
#>  4 401283399   2021           2 2021-02-17 2021-02-17 21:00:00    4278073
#>  5 401283399   2021           2 2021-02-17 2021-02-17 21:00:00    4397020
#>  6 401283399   2021           2 2021-02-17 2021-02-17 21:00:00    3138156
#>  7 401283399   2021           2 2021-02-17 2021-02-17 21:00:00       6610
#>  8 401283399   2021           2 2021-02-17 2021-02-17 21:00:00    2490089
#>  9 401283399   2021           2 2021-02-17 2021-02-17 21:00:00    3133626
#> 10 401283399   2021           2 2021-02-17 2021-02-17 21:00:00    4080610
#> # ℹ 14 more rows
#> # ℹ 51 more variables: athlete_display_name <chr>, team_id <int>,
#> #   team_name <chr>, team_location <chr>, team_short_display_name <chr>,
#> #   minutes <dbl>, field_goals_made <int>, field_goals_attempted <int>,
#> #   three_point_field_goals_made <int>,
#> #   three_point_field_goals_attempted <int>, free_throws_made <int>,
#> #   free_throws_attempted <int>, offensive_rebounds <int>, …
…
