…
## Examples

``` r
# \donttest{
  espn_mbb_wp(game_id = 401256760)
#> ── ESPN MBB Win Probability Information from ESPN.com ─────────── hoopR 2.1.1 ──
#> ℹ Data updated: 2026-01-19 16:28:19 UTC
#> # A tibble: 352 × 9
#>    game_id   play_id      period time_left period_seconds_left game_seconds_left
#>  * <chr>     <chr>         <dbl> <chr>                   <dbl>             <dbl>
#>  1 401256760 40125676010…      1 19:40                    1180              2380
#>  2 401256760 40125676010…      1 19:36                    1176              2376
#>  3 401256760 40125676010…      1 19:36                    1176              2376
#>  4 401256760 40125676010…      1 19:11                    1151              2351
#>  5 401256760 40125676010…      1 19:09                    1149              2349
#>  6 401256760 40125676010…      1 18:54                    1134              2334
#>  7 401256760 40125676010…      1 18:54                    1134              2334
#>  8 401256760 40125676010…      1 18:29                    1109              2309
#>  9 401256760 40125676010…      1 18:17                    1097              2297
#> 10 401256760 40125676010…      1 18:17                    1097              2297
#> # ℹ 342 more rows
#> # ℹ 3 more variables: home_win_percentage <dbl>, away_win_percentage <dbl>,
#> #   tie_percentage <dbl>
…
