…
## Author

Saiem Gilani

## Examples

``` r
# \donttest{
try(espn_mbb_pbp(game_id = 401479672))
#> ── ESPN MBB Play-by-Play Information from ESPN.com ────────────── hoopR 3.0.0 ──
#> ℹ Data updated: 2026-03-26 14:50:50 UTC
#> # A tibble: 360 × 53
#>    id       sequence_number text  away_score home_score scoring_play score_value
#>    <chr>    <chr>           <chr>      <int>      <int> <lgl>              <int>
#>  1 4014796… 101799901       Jump…          0          0 FALSE                  0
#>  2 4014796… 101805501       Jess…          0          0 FALSE                  2
#>  3 4014796… 101805502       RJ M…          0          0 FALSE                  0
#>  4 4014796… 101805503       Skyy…          0          0 FALSE                  0
#>  5 4014796… 101808101       Terr…          0          0 FALSE                  3
#>  6 4014796… 101808102       RJ M…          0          0 FALSE                  0
#>  7 4014796… 101809301       RJ M…          0          0 FALSE                  2
#>  8 4014796… 101809302       Benn…          0          0 FALSE                  0
#>  9 4014796… 101809501       Foul…          0          0 FALSE                  0
#> 10 4014796… 101814601       Juda…          0          0 FALSE                  2
#> # ℹ 350 more rows
#> # ℹ 46 more variables: wallclock <chr>, shooting_play <lgl>,
#> #   points_attempted <int>, short_description <chr>, type_id <int>,
#> #   type_text <chr>, period_number <int>, period_display_value <chr>,
#> #   clock_display_value <chr>, team_id <int>, coordinate_x_raw <dbl>,
#> #   coordinate_y_raw <dbl>, coordinate_x <dbl>, coordinate_y <dbl>,
#> #   play_id <chr>, athlete_id_1 <int>, athlete_id_2 <int>, …
…
