…
## Author

Saiem Gilani

## Examples

``` r
# Get current AP and Coaches Poll rankings
# \donttest{
  try(espn_mbb_rankings())
#> ── ESPN MBB Rankings Information from ESPN.com ────────────────── hoopR 2.1.1 ──
#> ℹ Data updated: 2026-01-19 16:28:14 UTC
#> # A tibble: 88 × 38
#>       id name   short_name type  headline short_headline current previous points
#>    <int> <chr>  <chr>      <chr> <chr>    <chr>            <int>    <int>  <dbl>
#>  1     1 AP To… AP Poll    ap    2026 NC… 2026 : Week 11       1        1   1524
#>  2     1 AP To… AP Poll    ap    2026 NC… 2026 : Week 11       2        3   1448
#>  3     1 AP To… AP Poll    ap    2026 NC… 2026 : Week 11       3        4   1358
#>  4     1 AP To… AP Poll    ap    2026 NC… 2026 : Week 11       4        2   1300
#>  5     1 AP To… AP Poll    ap    2026 NC… 2026 : Week 11       5        5   1253
#>  6     1 AP To… AP Poll    ap    2026 NC… 2026 : Week 11       6        6   1237
#>  7     1 AP To… AP Poll    ap    2026 NC… 2026 : Week 11       7        7   1130
#>  8     1 AP To… AP Poll    ap    2026 NC… 2026 : Week 11       8       10   1056
#>  9     1 AP To… AP Poll    ap    2026 NC… 2026 : Week 11       9        8   1050
#> 10     1 AP To… AP Poll    ap    2026 NC… 2026 : Week 11      10       11   1035
#> # ℹ 78 more rows
#> # ℹ 29 more variables: first_place_votes <int>, trend <chr>, date <chr>,
#> #   last_updated <chr>, record_summary <chr>, team_id <int>, team_uid <chr>,
#> #   team_location <chr>, team_name <chr>, team_nickname <chr>,
#> #   team_abbreviation <chr>, team_color <chr>, team_logos <list>,
#> #   team_logo <chr>, occurrence_number <int>, occurrence_type <chr>,
#> #   occurrence_last <lgl>, occurrence_value <chr>, …
…
