Get KenPom's coaching resume data — kp_coach_history • hoopR
…
Def.A.Pct
double.

Def.AP
double.

Foul2Partic.Pct
double.

    Examples

  # \donttest{
   try(kp_coach_history(coach = 'Leonard Hamilton'))
#> # A tibble: 25 × 57
#>     year team_rk team      coach conf  adj_t adj_o adj_d off_e…¹ off_t…² off_o…³
#>    <dbl>   <dbl> <chr>     <chr> <chr> <chr> <chr> <chr> <chr>   <chr>   <chr>  
#>  1  2023     208 Florida … Leon… ACC   68.9  105.3 108.1 49.3    17.6    25.9   
#>  2  2022     105 Florida … Leon… ACC   67.8  105.3 99.1  49.0    18.1    31.6   
#>  3  2021      15 Florida … Leon… ACC   69.9  114.9 92.8  54.0    20.4    34.4   
#>  4  2020      15 Florida … Leon… ACC   69.9  111.7 91.5  51.9    18.9    33.5   
#>  5  2019      14 Florida … Leon… ACC   68.6  112.8 90.4  50.5    18.9    32.8   
#>  6  2018      27 Florida … Leon… ACC   71.2  114.3 96.5  53.2    17.8    32.3   
#>  7  2017      26 Florida … Leon… ACC   71.3  115.5 95.5  53.7    16.4    33.8   
#>  8  2016      48 Florida … Leon… ACC   71.6  113.1 98.9  51.8    18.0    32.8   
#>  9  2015      99 Florida … Leon… ACC   65.9  105.6 99.3  50.1    21.9    31.8   
#> 10  2014      38 Florida … Leon… ACC   65.2  112.2 97.4  51.7    21.4    34.8   
#> # … with 15 more rows, 46 more variables: off_ft_rate <chr>,
#> #   off_fg_2_pct <chr>, off_fg_3_pct <chr>, off_ft_pct <chr>,
#> #   off_fg_3a_pct <chr>, off_a_pct <chr>, off_apl <chr>, def_e_fg_pct <chr>,
#> #   def_to_pct <chr>, def_or_pct <chr>, def_ft_rate <chr>, def_fg_2_pct <chr>,
#> #   def_fg_3_pct <chr>, def_blk_pct <chr>, def_fg_3a_pct <chr>,
#> #   def_a_pct <chr>, def_apl <chr>, foul2partic_pct <chr>, wl <chr>,
#> #   wl_conf <chr>, adj_t_rk <dbl>, adj_o_rk <dbl>, adj_d_rk <dbl>, …
…
