…
## Examples

``` r
# \donttest{
  load_nba_team_box(seasons = most_recent_nba_season())
#> ── ESPN NBA Team Boxscores from hoopR data repository ─────────── hoopR 2.1.1 ──
#> ℹ Data updated: 2026-01-17 12:28:51 UTC
#> # A tibble: 1,236 × 59
#>      game_id season season_type game_date  game_date_time      team_id team_uid 
#>        <int>  <int>       <int> <date>     <dttm>                <int> <chr>    
#>  1 401810447   2026           2 2026-01-16 2026-01-16 22:00:00      27 s:40~l:4…
#>  2 401810447   2026           2 2026-01-16 2026-01-16 22:00:00      23 s:40~l:4…
#>  3 401810446   2026           2 2026-01-16 2026-01-16 21:30:00      16 s:40~l:4…
#>  4 401810446   2026           2 2026-01-16 2026-01-16 21:30:00      10 s:40~l:4…
#>  5 401810442   2026           2 2026-01-16 2026-01-16 19:30:00       4 s:40~l:4…
#>  6 401810442   2026           2 2026-01-16 2026-01-16 19:30:00      17 s:40~l:4…
#>  7 401810445   2026           2 2026-01-16 2026-01-16 19:30:00      12 s:40~l:4…
#>  8 401810445   2026           2 2026-01-16 2026-01-16 19:30:00      28 s:40~l:4…
#>  9 401810443   2026           2 2026-01-16 2026-01-16 19:00:00       3 s:40~l:4…
#> 10 401810443   2026           2 2026-01-16 2026-01-16 19:00:00      11 s:40~l:4…
#> # ℹ 1,226 more rows
#> # ℹ 52 more variables: team_slug <chr>, team_location <chr>, team_name <chr>,
#> #   team_abbreviation <chr>, team_display_name <chr>,
#> #   team_short_display_name <chr>, team_color <chr>,
#> #   team_alternate_color <chr>, team_logo <chr>, team_home_away <chr>,
#> #   team_score <int>, team_winner <lgl>, assists <int>, blocks <int>,
#> #   defensive_rebounds <int>, fast_break_points <chr>, field_goal_pct <dbl>, …
…
