…
## Examples

``` r
# \donttest{
  load_nba_player_box(seasons = most_recent_nba_season())
#> ── ESPN NBA Player Boxscores from hoopR data repository ───────── hoopR 3.0.0 ──
#> ℹ Data updated: 2026-03-07 12:45:45 UTC
#> # A tibble: 24,677 × 57
#>      game_id season season_type game_date  game_date_time      athlete_id
#>        <int>  <int>       <int> <date>     <dttm>                   <int>
#>  1 401810769   2026           2 2026-03-06 2026-03-06 22:30:00    3149673
#>  2 401810769   2026           2 2026-03-06 2026-03-06 22:30:00    5106060
#>  3 401810769   2026           2 2026-03-06 2026-03-06 22:30:00    4065731
#>  4 401810769   2026           2 2026-03-06 2026-03-06 22:30:00    4395712
#>  5 401810769   2026           2 2026-03-06 2026-03-06 22:30:00    4396909
#>  6 401810769   2026           2 2026-03-06 2026-03-06 22:30:00    4278355
#>  7 401810769   2026           2 2026-03-06 2026-03-06 22:30:00    4066399
#>  8 401810769   2026           2 2026-03-06 2026-03-06 22:30:00    2530530
#>  9 401810769   2026           2 2026-03-06 2026-03-06 22:30:00    4431752
#> 10 401810769   2026           2 2026-03-06 2026-03-06 22:30:00    4433076
#> # ℹ 24,667 more rows
#> # ℹ 51 more variables: athlete_display_name <chr>, team_id <int>,
#> #   team_name <chr>, team_location <chr>, team_short_display_name <chr>,
#> #   minutes <dbl>, field_goals_made <int>, field_goals_attempted <int>,
#> #   three_point_field_goals_made <int>,
#> #   three_point_field_goals_attempted <int>, free_throws_made <int>,
#> #   free_throws_attempted <int>, offensive_rebounds <int>, …
…
