Load hoopR NBA team box scores — load_nba_team_box • hoopR
…
    Examples

# \donttest{
load_nba_team_box(seasons = most_recent_nba_season())
#> ── ESPN NBA Team Boxscores from hoopR data repository ─────────── hoopR 3.0.0 ──
#> ℹ Data updated: 2026-03-26 11:45:26 UTC
#> # A tibble: 2,192 × 59
#>      game_id season season_type game_date  game_date_time      team_id team_uid 
#>        <int>  <int>       <int> <date>     <dttm>                <int> <chr>    
#>  1 401810906   2026           2 2026-03-25 2026-03-25 19:00:00       1 s:40~l:4…
#>  2 401810906   2026           2 2026-03-25 2026-03-25 19:00:00       8 s:40~l:4…
#>  3 401810907   2026           2 2026-03-25 2026-03-25 19:00:00      13 s:40~l:4…
#>  4 401810907   2026           2 2026-03-25 2026-03-25 19:00:00      11 s:40~l:4…
#>  5 401810908   2026           2 2026-03-25 2026-03-25 19:00:00       4 s:40~l:4…
#>  6 401810908   2026           2 2026-03-25 2026-03-25 19:00:00      20 s:40~l:4…
#>  7 401810909   2026           2 2026-03-25 2026-03-25 19:30:00      25 s:40~l:4…
#>  8 401810909   2026           2 2026-03-25 2026-03-25 19:30:00       2 s:40~l:4…
#>  9 401810910   2026           2 2026-03-25 2026-03-25 19:30:00      14 s:40~l:4…
#> 10 401810910   2026           2 2026-03-25 2026-03-25 19:30:00       5 s:40~l:4…
#> # ℹ 2,182 more rows
#> # ℹ 52 more variables: team_slug <chr>, team_location <chr>, team_name <chr>,
#> #   team_abbreviation <chr>, team_display_name <chr>,
#> #   team_short_display_name <chr>, team_color <chr>,
#> #   team_alternate_color <chr>, team_logo <chr>, team_home_away <chr>,
#> #   team_score <int>, team_winner <lgl>, assists <int>, blocks <int>,
#> #   defensive_rebounds <int>, fast_break_points <chr>, field_goal_pct <dbl>, …
…
