…
## Examples

``` r
# \donttest{
load_mbb_player_box(seasons = most_recent_mbb_season())
#> ── ESPN MBB Player Boxscores from hoopR data repository ───────── hoopR 3.0.0 ──
#> ℹ Data updated: 2026-03-07 12:43:04 UTC
#> # A tibble: 184,242 × 55
#>      game_id season season_type game_date  game_date_time      athlete_id
#>        <int>  <int>       <int> <date>     <dttm>                   <int>
#>  1 401851750   2026           2 2026-03-06 2026-03-06 23:30:00    5313159
#>  2 401851750   2026           2 2026-03-06 2026-03-06 23:30:00    5241002
#>  3 401851750   2026           2 2026-03-06 2026-03-06 23:30:00    4711295
#>  4 401851750   2026           2 2026-03-06 2026-03-06 23:30:00    5185563
#>  5 401851750   2026           2 2026-03-06 2026-03-06 23:30:00    4702226
#>  6 401851750   2026           2 2026-03-06 2026-03-06 23:30:00    5239760
#>  7 401851750   2026           2 2026-03-06 2026-03-06 23:30:00    5313158
#>  8 401851750   2026           2 2026-03-06 2026-03-06 23:30:00    4870444
#>  9 401851750   2026           2 2026-03-06 2026-03-06 23:30:00    5313155
#> 10 401851750   2026           2 2026-03-06 2026-03-06 23:30:00    5101837
#> # ℹ 184,232 more rows
#> # ℹ 49 more variables: athlete_display_name <chr>, team_id <int>,
#> #   team_name <chr>, team_location <chr>, team_short_display_name <chr>,
#> #   minutes <dbl>, field_goals_made <int>, field_goals_attempted <int>,
#> #   three_point_field_goals_made <int>,
#> #   three_point_field_goals_attempted <int>, free_throws_made <int>,
#> #   free_throws_attempted <int>, offensive_rebounds <int>, …
…
