Load hoopR men's college basketball team box scores — load_mbb_team_box • hoopR
…
    Examples

# \donttest{
  load_mbb_team_box(seasons = most_recent_mbb_season())
#> ── ESPN MBB Team Boxscores from hoopR data repository ─────────── hoopR 2.0.0 ──
#> ℹ Data updated: 2023-04-02 09:22:55 UTC
#> # A tibble: 12,438 × 40
#>    team_id team_uid         team_slug  team_location team_name team_abbreviation
#>    <chr>   <chr>            <chr>      <chr>         <chr>     <chr>            
#>  1 2390    s:40~l:41~t:2390 miami-hur… Miami         Hurrican… MIA              
#>  2 41      s:40~l:41~t:41   uconn-hus… UConn         Huskies   CONN             
#>  3 2226    s:40~l:41~t:2226 florida-a… Florida Atla… Owls      FAU              
#>  4 21      s:40~l:41~t:21   san-diego… San Diego St… Aztecs    SDSU             
#>  5 5       s:40~l:41~t:5    uab-blaze… UAB           Blazers   UAB              
#>  6 249     s:40~l:41~t:249  north-tex… North Texas   Mean Gre… UNT              
#>  7 3084    s:40~l:41~t:3084 utah-vall… Utah Valley   Wolverin… UVU              
#>  8 5       s:40~l:41~t:5    uab-blaze… UAB           Blazers   UAB              
#>  9 275     s:40~l:41~t:275  wisconsin… Wisconsin     Badgers   WISC             
#> 10 249     s:40~l:41~t:249  north-tex… North Texas   Mean Gre… UNT              
#> # ℹ 12,428 more rows
#> # ℹ 34 more variables: team_display_name <chr>, team_short_display_name <chr>,
#> #   team_color <chr>, team_alternate_color <chr>, team_logo <chr>,
#> #   field_goals_made_field_goals_attempted <chr>, field_goal_pct <chr>,
#> #   three_point_field_goals_made_three_point_field_goals_attempted <chr>,
#> #   three_point_field_goal_pct <chr>,
#> #   free_throws_made_free_throws_attempted <chr>, free_throw_pct <chr>, …
…
