…
## Examples

``` r
# \donttest{
load_mbb_pbp(seasons = most_recent_mbb_season())
#> ── ESPN MBB Play-by-Play from hoopR data repository ───────────── hoopR 2.1.1 ──
#> ℹ Data updated: 2026-01-19 11:28:05 UTC
#> # A tibble: 1,722,062 × 57
#>    game_play_number      id sequence_number type_id type_text   text  away_score
#>               <int>   <dbl>           <int>   <int> <chr>       <chr>      <int>
#>  1                1 4.02e17       117605635     615 Jumpball    "Sta…          0
#>  2                2 4.02e17       117605636     615 Jumpball    "Jum…          0
#>  3                3 4.02e17       117605637     615 Jumpball    "Jum…          0
#>  4                4 4.02e17       117605664     558 JumpShot    "Chr…          0
#>  5                5 4.02e17       117605670     598 Lost Ball … "Noa…          0
#>  6                6 4.02e17       117605672     607 Steal       "Mil…          0
#>  7                7 4.02e17       117605673     574 DunkShot    "Kin…          0
#>  8                8 4.02e17       117605677     558 JumpShot    "Mau…          0
#>  9                9 4.02e17       117605678     587 Defensive … "Kin…          0
#> 10               10 4.02e17       117605686     558 JumpShot    "Chr…          0
#> # ℹ 1,722,052 more rows
#> # ℹ 50 more variables: home_score <int>, period_number <int>,
#> #   period_display_value <chr>, clock_display_value <chr>, scoring_play <lgl>,
#> #   score_value <int>, wallclock <chr>, shooting_play <lgl>,
#> #   coordinate_x_raw <dbl>, coordinate_y_raw <dbl>, points_attempted <int>,
#> #   short_description <chr>, game_id <int>, season <int>, season_type <int>,
#> #   home_team_id <int>, home_team_name <chr>, home_team_mascot <chr>, …
…
