…
## Examples

``` r
# \donttest{
load_mbb_team_box(seasons = most_recent_mbb_season())
#> ── ESPN MBB Team Boxscores from hoopR data repository ─────────── hoopR 2.1.1 ──
#> ℹ Data updated: 2026-01-19 11:34:40 UTC
#> # A tibble: 7,294 × 59
#>      game_id season season_type game_date  game_date_time      team_id team_uid 
#>        <int>  <int>       <int> <date>     <dttm>                <int> <chr>    
#>  1 401829207   2026           2 2026-01-18 2026-01-18 19:00:00     265 s:40~l:4…
#>  2 401829207   2026           2 2026-01-18 2026-01-18 19:00:00    2539 s:40~l:4…
#>  3 401827631   2026           2 2026-01-18 2026-01-18 18:30:00       9 s:40~l:4…
#>  4 401827631   2026           2 2026-01-18 2026-01-18 18:30:00     248 s:40~l:4…
#>  5 401828182   2026           2 2026-01-18 2026-01-18 18:00:00    2636 s:40~l:4…
#>  6 401828182   2026           2 2026-01-18 2026-01-18 18:00:00     235 s:40~l:4…
#>  7 401828183   2026           2 2026-01-18 2026-01-18 17:00:00     249 s:40~l:4…
#>  8 401828183   2026           2 2026-01-18 2026-01-18 17:00:00    2655 s:40~l:4…
#>  9 401843145   2026           2 2026-01-18 2026-01-18 15:00:00    2070 s:40~l:4…
#> 10 401843145   2026           2 2026-01-18 2026-01-18 15:00:00    2197 s:40~l:4…
#> # ℹ 7,284 more rows
#> # ℹ 52 more variables: team_slug <chr>, team_location <chr>, team_name <chr>,
#> #   team_abbreviation <chr>, team_display_name <chr>,
#> #   team_short_display_name <chr>, team_color <chr>,
#> #   team_alternate_color <chr>, team_logo <chr>, team_home_away <chr>,
#> #   team_score <int>, team_winner <lgl>, assists <int>, blocks <int>,
#> #   defensive_rebounds <int>, fast_break_points <chr>, field_goal_pct <dbl>, …
…
