Load hoopR NBA player box scores — load_nba_player_box • hoopR
…
    Examples

# \donttest{
  load_nba_player_box(seasons = most_recent_nba_season())
#> ── ESPN NBA Player Boxscores from hoopR data repository ───────── hoopR 2.0.0 ──
#> ℹ Data updated: 2023-06-05 14:49:18 UTC
#> # A tibble: 33,811 × 57
#>      game_id season season_type game_date  game_date_time      athlete_id
#>        <int>  <int>       <int> <date>     <dttm>                   <int>
#>  1 401544847   2023           3 2023-06-04 2023-06-04 20:00:00       3449
#>  2 401544847   2023           3 2023-06-04 2023-06-04 20:00:00       6430
#>  3 401544847   2023           3 2023-06-04 2023-06-04 20:00:00    4066261
#>  4 401544847   2023           3 2023-06-04 2023-06-04 20:00:00    3137259
#>  5 401544847   2023           3 2023-06-04 2023-06-04 20:00:00    4065778
#>  6 401544847   2023           3 2023-06-04 2023-06-04 20:00:00    3157465
#>  7 401544847   2023           3 2023-06-04 2023-06-04 20:00:00    4291678
#>  8 401544847   2023           3 2023-06-04 2023-06-04 20:00:00    3138160
#>  9 401544847   2023           3 2023-06-04 2023-06-04 20:00:00    2579258
#> 10 401544847   2023           3 2023-06-04 2023-06-04 20:00:00       3012
#> # ℹ 33,801 more rows
#> # ℹ 51 more variables: athlete_display_name <chr>, team_id <int>,
#> #   team_name <chr>, team_location <chr>, team_short_display_name <chr>,
#> #   minutes <dbl>, field_goals_made <int>, field_goals_attempted <int>,
#> #   three_point_field_goals_made <int>,
#> #   three_point_field_goals_attempted <int>, free_throws_made <int>,
#> #   free_throws_attempted <int>, offensive_rebounds <int>, …
…
