Load hoopR NBA play-by-play — load_nba_pbp • hoopR
…
    Examples

# \donttest{
load_nba_pbp(seasons = most_recent_nba_season())
#> ── ESPN NBA Play-by-Play from hoopR data repository ───────────── hoopR 3.0.0 ──
#> ℹ Data updated: 2026-03-23 11:44:52 UTC
#> # A tibble: 519,304 × 64
#>    game_play_number        id sequence_number type_id type_text text  away_score
#>               <int>     <dbl>           <int>   <int> <chr>     <chr>      <int>
#>  1                1   4.02e 9               4     615 Jumpball  Dono…          0
#>  2                2   4.02e 9               7     131 Pullup J… Jama…          0
#>  3                3   4.02e 9               8     131 Pullup J… Jrue…          0
#>  4                4   4.02e 9               9     155 Defensiv… Niko…          0
#>  5                5   4.02e10              10     146 Running … Came…          0
#>  6                6   4.02e10              12      92 Jump Shot Dono…          3
#>  7                7   4.02e10              14     128 Driving … Jama…          3
#>  8                8   4.02e10              16      92 Jump Shot Dono…          6
#>  9                9   4.02e10              18     132 Step Bac… Jama…          6
#> 10               10   4.02e10              19      16 Full Tim… Trai…          6
#> # ℹ 519,294 more rows
#> # ℹ 57 more variables: home_score <int>, period_number <int>,
#> #   period_display_value <chr>, clock_display_value <chr>, scoring_play <lgl>,
#> #   score_value <int>, team_id <int>, athlete_id_1 <int>, athlete_id_2 <int>,
#> #   athlete_id_3 <int>, wallclock <chr>, shooting_play <lgl>,
#> #   coordinate_x_raw <dbl>, coordinate_y_raw <dbl>, points_attempted <int>,
#> #   short_description <chr>, game_id <int>, season <int>, season_type <int>, …
…
