Get ESPN Team Names and Ids — cbb_espn_teams • kenpomR
…
    cbb_espn_teams.Rd

    Get ESPN Team Names and Ids

cbb_espn_teams()

    Author

    Saiem Gilani

    Examples

 cbb_espn_teams()

#> # A tibble: 355 x 34
#>    id    uid   slug  location name  nickname abbreviation displayName
#>    <chr> <chr> <chr> <chr>    <chr> <chr>    <chr>        <chr>      
#>  1 2000  s:40~ abil~ Abilene~ Wild~ Abil Ch~ ACU          Abilene Ch~
#>  2 2005  s:40~ air-~ Air For~ Falc~ Air For~ AFA          Air Force ~
#>  3 2006  s:40~ akro~ Akron    Zips  Akron    AKR          Akron Zips 
#>  4 2010  s:40~ alab~ Alabama~ Bull~ Alabama~ AAMU         Alabama A&~
#>  5 333   s:40~ alab~ Alabama  Crim~ Alabama  ALA          Alabama Cr~
#>  6 2011  s:40~ alab~ Alabama~ Horn~ Alabama~ ALST         Alabama St~
#>  7 399   s:40~ alba~ Albany   Grea~ Albany   ALB          Albany Gre~
#>  8 2016  s:40~ alco~ Alcorn ~ Brav~ Alcorn ~ ALCN         Alcorn Sta~
#>  9 44    s:40~ amer~ American Eagl~ American AMER         American E~
#> 10 2026  s:40~ appa~ Appalac~ Moun~ Appalac~ APP          Appalachia~
#> # ... with 345 more rows, and 26 more variables: shortDisplayName <chr>,
#> #   color <chr>, alternateColor <chr>, isActive <lgl>, isAllStar <lgl>,
#> #   logos_href_1 <chr>, logos_href_2 <chr>, summary <chr>, playoffSeed <dbl>,
#> #   wins <dbl>, losses <dbl>, winPercent <dbl>, gamesBehind <dbl>, ties <dbl>,
#> #   OTWins <dbl>, OTLosses <dbl>, gamesPlayed <dbl>, pointsFor <dbl>,
#> #   pointsAgainst <dbl>, avgPointsFor <dbl>, avgPointsAgainst <dbl>,
#> #   points <dbl>, differential <dbl>, streak <dbl>, divisionWinPercent <dbl>,
#> #   leagueWinPercent <dbl>
…
