Get College Basketball AP and Coaches Poll Rankings — cbb_rankings • kenpomR
…
    Value

    Returns a tibble

    Author

    Saiem Gilani

    Examples

# Get current AP and Coaches Poll rankings
cbb_rankings()

#> # A tibble: 83 x 43
#>    `$ref` id    name  shortName type  headline shortHeadline current previous
#>    <chr>  <chr> <chr> <chr>     <chr> <chr>    <chr>           <int>    <int>
#>  1 http:~ 1     AP T~ AP Poll   ap    2021 NC~ 2021 : Week ~       1        1
#>  2 http:~ 1     AP T~ AP Poll   ap    2021 NC~ 2021 : Week ~       2        2
#>  3 http:~ 1     AP T~ AP Poll   ap    2021 NC~ 2021 : Week ~       3        3
#>  4 http:~ 1     AP T~ AP Poll   ap    2021 NC~ 2021 : Week ~       4        4
#>  5 http:~ 1     AP T~ AP Poll   ap    2021 NC~ 2021 : Week ~       5        5
#>  6 http:~ 1     AP T~ AP Poll   ap    2021 NC~ 2021 : Week ~       6        8
#>  7 http:~ 1     AP T~ AP Poll   ap    2021 NC~ 2021 : Week ~       7        9
#>  8 http:~ 1     AP T~ AP Poll   ap    2021 NC~ 2021 : Week ~       8       10
#>  9 http:~ 1     AP T~ AP Poll   ap    2021 NC~ 2021 : Week ~       9       11
#> 10 http:~ 1     AP T~ AP Poll   ap    2021 NC~ 2021 : Week ~      10       13
#> # ... with 73 more rows, and 34 more variables: points <dbl>,
#> #   firstPlaceVotes <int>, trend <chr>, recordSummary <chr>, team.id <chr>,
#> #   team.uid <chr>, team.location <chr>, team.name <chr>, team.nickname <chr>,
#> #   team.abbreviation <chr>, team.color <chr>, team.links <list>,
#> #   team.logo <chr>, others <list>, droppedOut <list>, occurrence.number <int>,
#> #   occurrence.type <chr>, occurrence.last <lgl>, occurrence.value <chr>,
#> #   occurrence.displayValue <chr>, season.year <int>, season.startDate <chr>,
#> #   season.endDate <chr>, season.displayName <chr>, season.type.type <int>,
#> #   season.type.name <chr>, season.type.abbreviation <chr>,
…
